{
    "KPlugin": {
        "Authors": [
            {
                "Email": "devin@kde.org",
                "Name": "Devin Lin",
                "Name[az]": "Devin Lin",
                "Name[ca@valencia]": "Devin Lin",
                "Name[ca]": "Devin Lin",
                "Name[cs]": "Devin Lin",
                "Name[de]": "Devin Lin",
                "Name[en_GB]": "Devin Lin",
                "Name[es]": "Devin Lin",
                "Name[eu]": "Devin Lin",
                "Name[fi]": "Devin Lin",
                "Name[fr]": "Devin Lin",
                "Name[ia]": "Devin Lin",
                "Name[is]": "Devin Lin",
                "Name[it]": "Devin Lin",
                "Name[ka]": "Devin Lin",
                "Name[ko]": "Devin Lin",
                "Name[nl]": "Devin Lin",
                "Name[nn]": "Devin Lin",
                "Name[pa]": "ਡੇਵਿਨ ਲਿਨ",
                "Name[pl]": "Devin Lin",
                "Name[pt]": "Devin Lin",
                "Name[pt_BR]": "Devin Lin",
                "Name[ru]": "Devin Lin",
                "Name[sl]": "Devin Lin",
                "Name[sv]": "Devin Lin",
                "Name[tr]": "Devin Lin",
                "Name[uk]": "Devin Lin",
                "Name[x-test]": "xxDevin Linxx",
                "Name[zh_CN]": "Devin Lin"
            }
        ],
        "Description": "Settings application quick setting for Plasma Mobile",
        "Description[ca@valencia]": "Configuració ràpida de la configuració general per a Plasma Mobile",
        "Description[ca]": "Configuració ràpida de la configuració general per al Plasma Mobile",
        "Description[cs]": "Rychlá nastavení aplikací pro Plasma Mobile",
        "Description[en_GB]": "Settings application quick setting for Plasma Mobile",
        "Description[es]": "Ajuste rápido de la aplicación de preferencias para Plasma Mobile",
        "Description[eu]": "Ezarpen-aplikazioaren ezarpen azkarra Plasma Mugikorrerako",
        "Description[fi]": "Asetussovelluksen pika-asetus Plasma Mobileen",
        "Description[fr]": "Configuration rapide de la configuration d'une application pour Plasma Mobile",
        "Description[ia]": "Preferentia rapide de Fixar applicationes per Plasma Mobile",
        "Description[it]": "Impostazione rapida dell'applicazione Impostazioni per Plasma Mobile",
        "Description[ka]": "პარამეტრების აპლიკაციის სწრაფი მორგების პარამეტრი Plasma Mobile-სთვის",
        "Description[ko]": "Plasma 모바일의 설정 앱 빠른 설정",
        "Description[nl]": "Snelle instelling van toepassing voor instellingen voor Plasma Mobile",
        "Description[nn]": "Snøgginnstilling for innstillingar for Plasma Mobile",
        "Description[pl]": "Szybkie otwieranie ustawień aplikacji w Przenośnej Plazmie",
        "Description[pt]": "Configuração rápida das definições do Plasma Mobile",
        "Description[pt_BR]": "Configurações rápidas do aplicativo de configurações para o Plasma Mobile",
        "Description[ru]": "Быстрая настройка приложения «Настройка» для Plasma Mobile",
        "Description[sl]": "Hitre nastavitve aplikacij za Plasma Mobile",
        "Description[sv]": "Snabbinställning av inställningsprogram för Plasma mobil",
        "Description[tr]": "Plasma Mobile ayarlar uygulaması tez ayarı",
        "Description[uk]": "Швидке налаштовування параметрів програм для Мобільної Плазми",
        "Description[x-test]": "xxSettings application quick setting for Plasma Mobilexx",
        "Description[zh_CN]": "Plasma Mobile 的设置页面快捷设置",
        "Icon": "settings-configure",
        "Id": "org.kde.plasma.quicksetting.settingsapp",
        "License": "GPL-2.0+",
        "Name": "Settings",
        "Name[az]": "Ayarlar",
        "Name[ca@valencia]": "Configuració",
        "Name[ca]": "Configuració",
        "Name[cs]": "Nastavení",
        "Name[de]": "Einstellungen",
        "Name[en_GB]": "Settings",
        "Name[es]": "Preferencias",
        "Name[eu]": "Ezarpenak",
        "Name[fi]": "Asetukset",
        "Name[fr]": "Configuration",
        "Name[ia]": "Preferentias",
        "Name[is]": "Stillingar",
        "Name[it]": "Impostazioni",
        "Name[ka]": "მორგება",
        "Name[ko]": "설정",
        "Name[nl]": "Instellingen",
        "Name[nn]": "Innstillingar",
        "Name[pa]": "ਸੈਟਿੰਗਾਂ",
        "Name[pl]": "Ustawienia",
        "Name[pt]": "Configuração",
        "Name[pt_BR]": "Configurações",
        "Name[ro]": "Configurări",
        "Name[ru]": "Настройка",
        "Name[sk]": "Nastavenia",
        "Name[sl]": "Nastavitve",
        "Name[sv]": "Inställningar",
        "Name[tr]": "Ayarlar",
        "Name[uk]": "Параметри",
        "Name[x-test]": "xxSettingsxx",
        "Name[zh_CN]": "设置",
        "ServiceTypes": [
            "KPackage/GenericQML"
        ],
        "Version": "0.1",
        "Website": "https://kde.org"
    }
}
