{
    "KPlugin": {
        "Authors": [
            {
                "Email": "bshah@kde.org",
                "Name": "Bhushan Shah",
                "Name[az]": "Bhushan Shah",
                "Name[ca@valencia]": "Bhushan Shah",
                "Name[ca]": "Bhushan Shah",
                "Name[cs]": "Bhushan Shah",
                "Name[de]": "Bhushan Shah",
                "Name[en_GB]": "Bhushan Shah",
                "Name[es]": "Bhushan Shah",
                "Name[eu]": "Bhushan Shah",
                "Name[fi]": "Bhushan Shah",
                "Name[fr]": "Bhushan Shah",
                "Name[ia]": "Bhushan Shah",
                "Name[is]": "Bhushan Shah",
                "Name[it]": "Bhushan Shah",
                "Name[ka]": "Bhushan Shah",
                "Name[ko]": "Bhushan Shah",
                "Name[nl]": "Bhushan Shah",
                "Name[nn]": "Bhushan Shah",
                "Name[pa]": "ਭੂਸ਼ਨ ਸ਼ਾਹ",
                "Name[pl]": "Bhushan Shah",
                "Name[pt]": "Bhushan Shah",
                "Name[pt_BR]": "Bhushan Shah",
                "Name[ru]": "Bhushan Shah",
                "Name[sl]": "Bhushan Shah",
                "Name[sv]": "Bhushan Shah",
                "Name[tr]": "Buşan Şah",
                "Name[uk]": "Bhushan Shah",
                "Name[x-test]": "xxBhushan Shahxx",
                "Name[zh_CN]": "Bhushan Shah"
            }
        ],
        "Description": "Airplane mode quick setting for Plasma Mobile",
        "Description[ca@valencia]": "Configuració ràpida del mode avió per a Plasma Mobile",
        "Description[ca]": "Configuració ràpida del mode avió per al Plasma Mobile",
        "Description[en_GB]": "Aeroplane mode quick setting for Plasma Mobile",
        "Description[es]": "Ajuste rápido del modo avión para Plasma Mobile",
        "Description[eu]": "Hegaldi-moduaren ezarpen azkarra Plasma Mugikorrerako",
        "Description[fi]": "Lentokonetilan pika-asetus Plasma Mobileen",
        "Description[fr]": "Configuration rapide du mode « Avion » pour Plasma Mobile",
        "Description[ia]": "Preferentia   rapide de modo eroplano per Plasma Mobile",
        "Description[it]": "Impostazione rapida della modalità aereo per Plasma Mobile",
        "Description[ka]": "თვითმფრინავის რეჟიმის სწრაფი დაყენების პარამეტრი Plasma Mobile-სთვის",
        "Description[ko]": "Plasma 모바일의 비행기 모드 빠른 설정",
        "Description[nl]": "Snelle instelling van vliegtuigmodus voor Plasma Mobile",
        "Description[nn]": "Snøgginnstilling for flymodus for Plasma Mobile",
        "Description[pl]": "Szybki włączanie trybu samolotowego w Przenośnej Plazmie",
        "Description[pt]": "Configuração rápida do modo de avião do Plasma Mobile",
        "Description[pt_BR]": "Configurações rápidas do modo avião para o Plasma Mobile",
        "Description[ru]": "Быстрая настройка авиарежима в Plasma Mobile",
        "Description[sl]": "Hitre nastavitve letalskega načina za Plasma Mobile",
        "Description[sv]": "Snabbinställning av flygplansläge för Plasma mobil",
        "Description[tr]": "Plasma Mobile uçak kipi tez ayarı",
        "Description[uk]": "Швидке встановлення режиму польоту для Мобільної Плазми",
        "Description[x-test]": "xxAirplane mode quick setting for Plasma Mobilexx",
        "Description[zh_CN]": "Plasma Mobile 的飞行模式快捷设置",
        "Icon": "network-flightmode-on",
        "Id": "org.kde.plasma.quicksetting.airplanemode",
        "License": "GPL-2.0+",
        "Name": "Airplane Mode",
        "Name[az]": "Uçuş rejimi",
        "Name[ca@valencia]": "Mode avió",
        "Name[ca]": "Mode avió",
        "Name[cs]": "Režim v Letadle",
        "Name[da]": "Flytilstand",
        "Name[de]": "Flugmodus",
        "Name[en_GB]": "Aeroplane Mode",
        "Name[es]": "Modo avión",
        "Name[eu]": "Hegaldi modua",
        "Name[fi]": "Lentokonetila",
        "Name[fr]": "Mode Avion",
        "Name[hi]": "विमान मोड",
        "Name[hu]": "Repülős üzemmód",
        "Name[ia]": "Modo aeroplano",
        "Name[is]": "Flughamur",
        "Name[it]": "Modalità aereo",
        "Name[ka]": "თვითმფრინავის რეჟიმი",
        "Name[ko]": "비행기 모드",
        "Name[nl]": "Vliegtuigmodus",
        "Name[nn]": "Flymodus",
        "Name[pa]": "ਏਅਰਪਲੇਨ ਮੋਡ",
        "Name[pl]": "Tryb samolotowy",
        "Name[pt]": "Modo de Avião",
        "Name[pt_BR]": "Modo avião",
        "Name[ro]": "Regim de avion",
        "Name[ru]": "Режим полёта",
        "Name[sk]": "Režim lietadlo",
        "Name[sl]": "Letalski način",
        "Name[sv]": "Flygplansläge",
        "Name[tr]": "Uçak Kipi",
        "Name[uk]": "Режим польоту",
        "Name[x-test]": "xxAirplane Modexx",
        "Name[zh_CN]": "飞行模式",
        "ServiceTypes": [
            "KPackage/GenericQML"
        ],
        "Version": "0.1",
        "Website": "https://kde.org"
    }
}
